<svg xmlns="http://www.w3.org/2000/svg" xmlns:xlink="http://www.w3.org/1999/xlink" width="30" height="30" viewBox="0 0 30 30">
    <defs>
        <circle id="a" cx="15" cy="15" r="15"/>
    </defs>
    <g fill="none" fill-rule="evenodd">
        <g transform="rotate(-180 15 15)">
            <use fill="#FFF" xlink:href="#a"/>
            <circle cx="15" cy="15" r="14" stroke="#F5F5F5" stroke-width="2"/>
        </g>
        <path fill="#B3B3B3" d="M14.98 9.02l6 6.36-1.513 1.53-3.472-4.016v8.085h-2.033V13l-3.476 3.91-1.507-1.63z"/>
    </g>
</svg>
