<svg xmlns="http://www.w3.org/2000/svg" width="25" height="25" viewBox="0 0 25 25">
    <g fill="none" fill-rule="evenodd" transform="translate(1 1)">
        <circle cx="11.5" cy="11.5" r="11.5" stroke="#0033A1"/>
        <path fill="#0033A1" d="M14.152 15.212l1.06-1.06-2.651-2.652 2.651-2.652-1.06-1.06-2.652 2.651-2.652-2.651-1.06 1.06 2.651 2.652-2.651 2.652 1.06 1.06 2.652-2.651z"/>
    </g>
</svg>
