<svg xmlns="http://www.w3.org/2000/svg" width="16" height="16" viewBox="0 0 16 16">
    <path fill="#00A1E0" fill-rule="evenodd" d="M16.02 8l-8.488 8-1.426-1.286 6.369-5.774L0 9.022V7.013l12.475-.081-6.369-5.789L7.665 0z"/>
</svg>
