<svg xmlns="http://www.w3.org/2000/svg" width="68" height="68" viewBox="0 0 68 68">
    <g fill="none" fill-rule="evenodd">
        <circle cx="34" cy="34" r="34" fill="#66CF8E"/>
        <path fill="#FFF" d="M48.139 53.043c-2.13 1.456-11.2 3.093-23.538-11.764-11.897-14.308-8.497-22.24-6.902-24.072l2.747-2.836a1.542 1.542 0 0 1 2.18.175l7.224 8.494c.53.627.514 1.597-.181 2.178l-3.2 2.302c-1.269 1.249-.161 3.213 1.133 5.11l6.156 7.228c2.866 2.75 4.435 4.02 5.805 3.11l2.661-2.95a1.55 1.55 0 0 1 2.18.181l7.229 8.492a1.54 1.54 0 0 1-.187 2.183l-3.307 2.17z"/>
    </g>
</svg>
