<svg xmlns="http://www.w3.org/2000/svg" width="44" height="45" viewBox="0 0 44 45">
    <g fill="#0033A1" fill-rule="evenodd">
        <path d="M22.575 33.547h4.221c.952 0 1.802.625 2.321 1.5.08.13.148.286.21.424 1.396-2.91 2.255-6.072 2.255-8.974 0-3.766-1.352-7.286-3.42-10.006l-4.893 2.129.446-.914c.015-.031 1.367-2.865.53-4.835-1.7-1.058-3.553-1.676-5.409-1.675-6.35 0-13.073 6.647-13.073 14.865 0 5.803 3.114 12.985 7.205 16.675 2.893 2.399 8.042 2.512 10.886.023.74-.613 1.451-1.212 2.125-2.212h-3.404c-1.59 0-2.877-1.55-2.877-3.5s1.287-3.5 2.877-3.5z"/>
        <path d="M3.422 21.735a3.128 3.128 0 0 1-.197-.062C4.643 13.116 11.64 9.547 18.37 9.547h.123c.928 0 1.81-.074 2.648.04.53.076 1.04.165 1.539.268a7.002 7.002 0 0 1-.287-1.713 18.709 18.709 0 0 0-3.892-.423c-7.575-.075-15.463 4.162-16.856 13.95-.013.007-.03.024-.04.025C.723 21.793 0 22.677 0 23.587v5.733c0 .978.862 2.228 1.839 2.228h.916c.977 0 2.245-1.25 2.245-2.228v-5.733c0-.83-.808-1.66-1.578-1.852M28.006 38.021l-.007.001v-.005a.019.019 0 0 0 .008-.002v.006m-.028-.006c.004-.011.001-.021.004-.032v.001c-.002.01.001.02-.003.031m7.43-16.314c-.02-.003-.053-.026-.079-.04a15.254 15.254 0 0 0-1.492-5.141c-.169.005-.336.019-.507.019l-.275-.002a14.047 14.047 0 0 1-1.072-.068 14.01 14.01 0 0 1 1.795 5.192 2.094 2.094 0 0 1-.186.062c-.797.172-1.594 1.015-1.594 1.863v5.734c0 .589.41 1.111.853 1.432.042.031.147.06.147.087v-.087c0 .029.162-.138.238-.185.183.056.411.54.614.57.013.002.028.096.042.106.002-.009.006.024.008.015.087.013.176.289.267.289-.09 0-.18-.236-.267-.249l-.008.026c-.457 1.864-1.779 3.334-3.57 4.339-.266.155-.544.233-.834.355-.008 0-.017-.02-.025-.02-.155.061-.306.1-.46.169a1.644 1.644 0 0 0-.23.071c-.238.078-.483.327-.736.388-.2-.735-.69-1.079-1.242-1.079h-4.222c-.732 0-1.344.91-1.344 2 0 1.091.612 2 1.344 2h4.222c.167 0 .335-.234.482-.323.323-.197.618-.66.761-1.109-.02 0-.04-.047-.04-.031V37.547v.461c0-.057.56-.115.817-.195.274-.077.558-.16.827-.27 3-1.132 5.242-3.313 5.814-6.222l.003-.002a.338.338 0 0 1 .09-.045c.787-.179 1.45-1.112 1.45-1.954v-5.734c0-.891-.734-1.763-1.592-1.885M36.422 9.107a1.101 1.101 0 0 1-1.101-1.099 1.101 1.101 0 0 1 2.202 0c0 .606-.494 1.1-1.101 1.1m-3.183 0a1.1 1.1 0 0 1-1.1-1.1 1.1 1.1 0 0 1 2.202 0c0 .606-.494 1.1-1.102 1.1M30.03 6.91c.607 0 1.1.493 1.1 1.098a1.101 1.101 0 0 1-2.2 0 1.1 1.1 0 0 1 1.1-1.098M33.38.002L33.12 0c-5.435 0-9.925 3.451-10.008 7.694-.004.208.025.415.042.622a6.33 6.33 0 0 0 .389 1.741c.232.612.544 1.206.962 1.763.396.514.598 1.103.694 1.706.215 1.335-.14 2.75-.452 3.633l2.937-1.279 1.666-.725.135.044c.65.208 1.324.355 2.013.453.517.074 1.04.123 1.574.134l.26.003c.039 0 .077-.005.116-.005 5.384-.049 9.81-3.477 9.893-7.689.085-4.35-4.384-7.982-9.961-8.093"/>
    </g>
</svg>
