<svg xmlns="http://www.w3.org/2000/svg" xmlns:xlink="http://www.w3.org/1999/xlink" width="49" height="37" viewBox="0 0 49 37">
    <defs>
        <path id="a" d="M22.39.049H0v35.874H44.778V.05H22.39z"/>
    </defs>
    <g fill="none" fill-rule="evenodd">
        <g transform="translate(0 .105)">
            <mask id="b" fill="#fff">
                <use xlink:href="#a"/>
            </mask>
            <path fill="#0033A1" d="M42.026 24.956H2.751V2.71h39.275M22.39 29.505a.868.868 0 1 1 0-1.738.869.869 0 1 1 0 1.738M43.444.05H1.372C.636.049 0 .609 0 1.346v28.096c0 .736.636 1.356 1.372 1.356h16.565c-.02.422-.15 2.24-1.015 3.122-.682.693-1.628 1.345-1.259 1.679.09.205.515.324 1.482.324h10.898c1.1 0 1.484-.18 1.488-.449h-.038v-.089h-.039c-.048-.362-.782-.898-1.338-1.463-.865-.882-.996-2.7-1.016-3.123h16.344c.737 0 1.334-.619 1.334-1.355V1.347c0-.739-.599-1.298-1.334-1.298" mask="url(#b)"/>
        </g>
        <path fill="#F6F6F6" d="M34.882 11.765h13.235v22.941H34.882z"/>
        <path fill="#0033A1" d="M35.487 32.018h12.017V13.707H35.487v18.31zm7.128 1.49h-2.567a.54.54 0 0 0-.533.544v.436c0 .298.24.544.533.544h2.895a.54.54 0 0 0 .534-.544v-.436a.54.54 0 0 0-.534-.544h-.328zm6.376-20.782v20.707c0 1.499-1.202 2.726-2.676 2.726h-9.638c-1.473 0-2.677-1.227-2.677-2.726V12.726c0-1.5 1.204-2.726 2.677-2.726h9.638c1.474 0 2.676 1.226 2.676 2.726z"/>
    </g>
</svg>
