<svg xmlns="http://www.w3.org/2000/svg" width="30" height="30" viewBox="0 0 30 30">
    <g fill="none" fill-rule="evenodd" transform="translate(1 1)">
        <circle cx="14" cy="14" r="14" stroke="#FFF"/>
        <path fill="#FFF" d="M13.227 14l-6.259 6.259 1.41 1.41 6.258-6.26 6.26 6.26 1.409-1.41L16.046 14l6.259-6.259-1.41-1.41-6.259 6.26-6.258-6.26-1.41 1.41L13.227 14z"/>
    </g>
</svg>
