<svg xmlns="http://www.w3.org/2000/svg" width="80" height="80" viewBox="0 0 80 80">
    <g fill="none" fill-rule="evenodd">
        <circle cx="40" cy="40" r="40" fill="#FFF"/>
        <g fill="#DBDBDB">
            <path d="M40.433 35.664a1.701 1.701 0 0 1-1.718-1.718v-5.017c0-.963.756-1.719 1.718-1.719s1.718.825 1.718 1.719v5.017c0 .962-.756 1.718-1.718 1.718zm10.997-3.23c0-6.049-4.949-10.997-10.997-10.997s-10.997 4.948-10.997 10.997v14.433c0 6.048 4.949 10.997 10.997 10.997S51.43 52.915 51.43 46.867V32.434zM40.433 61.301C32.46 61.301 26 54.84 26 46.867V32.434C26 24.461 32.46 18 40.433 18s14.434 6.461 14.434 14.434v14.433c0 7.973-6.461 14.434-14.434 14.434z"/>
            <path fill-rule="nonzero" d="M41 71l4-4 1 1-5 5-5-5 1-1z"/>
        </g>
    </g>
</svg>
