<svg xmlns="http://www.w3.org/2000/svg" xmlns:xlink="http://www.w3.org/1999/xlink" width="45" height="45" viewBox="0 0 45 45">
    <defs>
        <path id="a" d="M24.557 10.626a1.144 1.144 0 0 0-.333-.123 1.62 1.62 0 0 0-.347-.039c-.391 0-.798.127-1.028.358l-2.917 2.916-.626.626h-8.184l.626-.626.7-.7h2.573c.042 0 .083-.007.124-.012.547-.063 1.08-.51 1.222-1.058.074-.277.032-.544-.113-.733-.18-.232-.442-.281-.631-.281H6.878a1.512 1.512 0 0 0-1.007.473L0 17.295l4.095 4.095 2.957-2.957h10.545c.377-.006.73-.145.964-.379l4.317-4.317 1.345-1.344.524-.523c.132-.133.284-.353.246-.646-.03-.236-.19-.456-.437-.6"/>
    </defs>
    <g fill="none" fill-rule="evenodd">
        <circle cx="22.5" cy="22.5" r="22.5" fill="#FFF"/>
        <g fill="#AA0050" transform="translate(10 12)">
            <path d="M17.097 9.752V5.692h3.088l-.81-.868-1.087-1.17-2.68-2.88-.092-.1-.45-.482-.18-.193-.171.185-.367.395-.702.753-2.16 2.323-1.088 1.17-.809.867h3.087v4.058z"/>
            <use xlink:href="#a"/>
        </g>
    </g>
</svg>
